Applied Statistics with R
…
Using this simple classification rule, we can turn logistic regression into a classifier. To use logistic regression for classification, we first use logistic regression to obtain estimated probabilities, \(\hat{p}({\bf x})\), then use these in conjunction with the above classification rule.

Logistic regression is just one of many ways that these probabilities could be estimated. In a course completely focused on machine learning, you’ll learn many additional ways to do this, as well as methods to directly make classifications without needing to first estimate probabilities. But since we had already introduced logistic regression, it makes sense to discuss it in the context of classification.

17.4.1 spam Example

To illustrate the use of logistic regression as a classifier, we will use the spam dataset from the kernlab package.

# install.packages("kernlab")
library(kernlab)
data("spam")
tibble::as.tibble(spam)

## # A tibble: 4,601 x 58
##     make address   all num3d   our  over remove internet order  mail
##  * <dbl>   <dbl> <dbl> <dbl> <dbl> <dbl>  <dbl>    <dbl> <dbl> <dbl>
##  1  0       0.64  0.64     0  0.32  0      0        0     0     0   
##  2  0.21    0.28  0.5      0  0.14  0.28   0.21     0.07  0     0.94
##  3  0.06    0     0.71     0  1.23  0.19   0.19     0.12  0.64  0.25
##  4  0       0     0        0  0.63  0      0.31     0.63  0.31  0.63
##  5  0       0     0        0  0.63  0      0.31     0.63  0.31  0.63
##  6  0       0     0        0  1.85  0      0        1.85  0     0   
##  7  0       0     0        0  1.92  0      0        0     0     0.64
##  8  0       0     0        0  1.88  0      0        1.88  0     0   
##  9  0.15    0     0.46     0  0.61  0      0.3      0     0.92  0.76
## 10  0.06    0.12  0.77     0  0.19  0.32   0.38     0     0.06  0   
## # ... with 4,591 more rows, and 48 more variables: receive <dbl>,
## #   will <dbl>, people <dbl>, report <dbl>, addresses <dbl>, free <dbl>,
## #   business <dbl>, email <dbl>, you <dbl>, credit <dbl>, your <dbl>,
## #   font <dbl>, num000 <dbl>, money <dbl>, hp <dbl>, hpl <dbl>,
## #   george <dbl>, num650 <dbl>, lab <dbl>, labs <dbl>, telnet <dbl>,
## #   num857 <dbl>, data <dbl>, num415 <dbl>, num85 <dbl>, technology <dbl>,
## #   num1999 <dbl>, parts <dbl>, pm <dbl>, direct <dbl>, cs <dbl>,
## #   meeting <dbl>, original <dbl>, project <dbl>, re <dbl>, edu <dbl>,
## #   table <dbl>, conference <dbl>, charSemicolon <dbl>,
…
